{
  "project_info": {
    "project_number": "1004675538290",
    "firebase_url": "https://ieptb-ma-68143.firebaseio.com",
    "project_id": "ieptb-ma-68143",
    "storage_bucket": "ieptb-ma-68143.appspot.com"
  },
  "client": [
    {
      "client_info": {
        "mobilesdk_app_id": "1:1004675538290:android:176cfcc7b8ed4b49",
        "android_client_info": {
          "package_name": "ielop.com.br.ieptbmaapp"
        }
      },
      "oauth_client": [
        {
          "client_id": "1004675538290-5gp9mt19t771d9ufbhpvkrm9fffn7m8p.apps.googleusercontent.com",
          "client_type": 3
        }
      ],
      "api_key": [
        {
          "current_key": "AIzaSyCLsFiTG2NkBZi_2D06qMSxXL3n-nxxF3s"
        }
      ],
      "services": {
        "analytics_service": {
          "status": 1
        },
        "appinvite_service": {
          "status": 1,
          "other_platform_oauth_client": []
        },
        "ads_service": {
          "status": 2
        }
      }
    },
    {
      "client_info": {
        "mobilesdk_app_id": "1:1004675538290:android:27c5ae8460b89a56",
        "android_client_info": {
          "package_name": "ieptb.ielop.br.com.ieptb"
        }
      },
      "oauth_client": [
        {
          "client_id": "1004675538290-5gp9mt19t771d9ufbhpvkrm9fffn7m8p.apps.googleusercontent.com",
          "client_type": 3
        }
      ],
      "api_key": [
        {
          "current_key": "AIzaSyCLsFiTG2NkBZi_2D06qMSxXL3n-nxxF3s"
        }
      ],
      "services": {
        "analytics_service": {
          "status": 1
        },
        "appinvite_service": {
          "status": 1,
          "other_platform_oauth_client": []
        },
        "ads_service": {
          "status": 2
        }
      }
    }
  ],
  "configuration_version": "1"
}